-------------------------------------------------------------------------------
Test set: fr.iut.rm.dao.RoomDaoTest
-------------------------------------------------------------------------------
Tests run: 1, Failures: 0, Errors: 0, Skipped: 0, Time elapsed: 2.123 sec
